…
## Анализ точек доступа

1.  Определение небезопасных точек

``` r
open_ap <- ap_clean |>
filter(privacy == "OPN") |>
arrange(desc(signal)) |>
select(bssid, essid, privacy, signal)
print(open_ap)
```

    # A tibble: 42 × 4
       bssid             essid         privacy signal
       <chr>             <chr>         <chr>    <dbl>
     1 E8:28:C1:DC:FF:F2 <NA>          OPN         -1
     2 00:25:00:FF:94:73 <NA>          OPN         -1
     3 E0:D9:E3:48:FF:D2 <NA>          OPN         -1
     4 00:26:99:F2:7A:E0 <NA>          OPN         -1
     5 00:AB:0A:00:10:10 <NA>          OPN         -1
     6 00:26:99:F2:7A:EF <NA>          OPN         -1
     7 00:3E:1A:5D:14:45 MT_FREE       OPN        -57
     8 E8:28:C1:DC:B2:52 MIREA_HOTSPOT OPN        -63
     9 E8:28:C1:DC:B2:50 MIREA_GUESTS  OPN        -63
    10 E8:28:C1:DC:B2:51 <NA>          OPN        -63
    # ℹ 32 more rows
…
``` r
probe_stats <- clients_clean |>
filter(!is.na(probe), probe != "") |>
separate_rows(probe, sep=",") |>
group_by(mac, probe) |>
summarise(first_seen = min(first_seen),
last_seen = max(last_seen),
mean_signal = mean(signal, na.rm=TRUE),
sd_signal = sd(signal, na.rm=TRUE),
.groups="drop")
probe_stats
```

    # A tibble: 1,833 × 6
       mac       probe first_seen          last_seen           mean_signal sd_signal
       <chr>     <chr> <dttm>              <dttm>                    <dbl>     <dbl>
     1 00:90:4C… "Red… 2023-07-28 09:16:59 2023-07-28 10:21:15         -65        NA
     2 00:95:69… "nvr… 2023-07-28 09:13:11 2023-07-28 11:56:13         -55        NA
     3 00:95:69… "nvr… 2023-07-28 09:13:15 2023-07-28 11:56:17         -33        NA
     4 00:95:69… "nvr… 2023-07-28 09:13:11 2023-07-28 11:56:07         -69        NA
     5 00:F4:8D… "Hor… 2023-07-28 10:45:04 2023-07-28 11:43:26         -73        NA
     6 00:F4:8D… "Red… 2023-07-28 10:45:04 2023-07-28 11:43:26         -73        NA
     7 02:00:00… "CPP… 2023-07-28 09:54:40 2023-07-28 11:55:36         -67        NA
     8 02:00:00… "MIR… 2023-07-28 09:54:40 2023-07-28 11:55:36         -67        NA
     9 02:00:00… "MIR… 2023-07-28 09:54:40 2023-07-28 11:55:36         -67        NA
    10 02:00:00… "\\x… 2023-07-28 09:54:40 2023-07-28 11:55:36         -67        NA
    # ℹ 1,823 more rows
…
